…
Wide <- Ind1 %>%
  full_join(Ind2, by = "pidp") %>%
  full_join(Ind3, by = "pidp")
Wide
```

    ## # A tibble: 70,585 x 10
    ##      pidp a_sex_dv a_age_dv a_fimnnet_dv b_sex_dv b_age_dv b_fimnnet_dv
    ##     <dbl>    <dbl>    <dbl>        <dbl>    <dbl>    <dbl>        <dbl>
    ##  1 6.80e7        1       39        1400        NA       NA         NA  
    ##  2 6.80e7        1       59         802.        1       60       1277. 
    ##  3 6.80e7        2       39        1180.        2       40       1116. 
    ##  4 6.80e7        2       17         130        NA       NA         NA  
    ##  5 6.80e7        2       72         673         2       73        966. 
    ##  6 6.80e7        2       57         400         2       58         16.7
    ##  7 6.80e7        1       59         708        NA       NA         NA  
    ##  8 6.80e7        1       25         857        NA       NA         NA  
    ##  9 6.80e7        1       22        1525.       NA       NA         NA  
    ## 10 6.80e7        2       38         552.        2       39        542. 
    ## # ... with 70,575 more rows, and 3 more variables: c_sex_dv <dbl>,
    ## #   c_age_dv <dbl>, c_fimnnet_dv <dbl>

``` r
# convert to long

Long <- Wide %>%
  gather(a_sex_dv:c_fimnnet_dv, key = "variable", value = "value") %>%
  separate(variable, into = c("wave", "variable"), sep = "_", extra = "merge") %>%
  spread(key = variable, value = value)
Long
```

    ## # A tibble: 211,755 x 5
    ##      pidp wave  age_dv fimnnet_dv sex_dv
    ##     <dbl> <chr>  <dbl>      <dbl>  <dbl>
    ##  1 280165 a         NA        NA      NA
    ##  2 280165 b         31      1728.      2
    ##  3 280165 c         32      2303.      2
    ##  4 541285 a         NA        NA      NA
    ##  5 541285 b         NA        NA      NA
    ##  6 541285 c         25       780.      1
    ##  7 541965 a         NA        NA      NA
    ##  8 541965 b         NA        NA      NA
    ##  9 541965 c         23      1156.      2
    ## 10 665045 a         NA        NA      NA
    ## # ... with 211,745 more rows
…
    ##    Min. 1st Qu.  Median    Mean 3rd Qu.    Max.    NA's 
    ##  -15000     572    1080    1290    1685  350392   56508

``` r
Long <- Long %>%
        mutate(income = case_when(
               fimnnet_dv < 500 ~ "Low",
               fimnnet_dv >= 500 & fimnnet_dv < 2000 ~ "Middle",
               fimnnet_dv >= 2000 ~ "High"
        )) %>%
        mutate(sex_dv = ifelse(sex_dv == 2, "female", ifelse(sex_dv == 1, "male", NA)))
Long               
```

    ## # A tibble: 211,755 x 6
    ##      pidp wave  age_dv fimnnet_dv sex_dv income
    ##     <dbl> <chr>  <dbl>      <dbl> <chr>  <chr> 
    ##  1 280165 a         NA        NA  <NA>   <NA>  
    ##  2 280165 b         31      1728. female Middle
    ##  3 280165 c         32      2303. female High  
    ##  4 541285 a         NA        NA  <NA>   <NA>  
    ##  5 541285 b         NA        NA  <NA>   <NA>  
    ##  6 541285 c         25       780. male   Middle
    ##  7 541965 a         NA        NA  <NA>   <NA>  
    ##  8 541965 b         NA        NA  <NA>   <NA>  
    ##  9 541965 c         23      1156. female Middle
    ## 10 665045 a         NA        NA  <NA>   <NA>  
    ## # ... with 211,745 more rows

``` r
# and back to wide

Wide <- Long %>%
  gather(age_dv:income, key = "variable", value = "value") %>%
  unite("variable", c("wave", "variable"), sep = "_") %>%
  spread(key = variable, value = value)

Wide %>%
        select(pidp, a_income, b_income, c_income)
```

    ## # A tibble: 70,585 x 4
    ##       pidp a_income b_income c_income
    ##      <dbl> <chr>    <chr>    <chr>   
    ##  1  280165 <NA>     Middle   High    
    ##  2  541285 <NA>     <NA>     Middle  
    ##  3  541965 <NA>     <NA>     Middle  
    ##  4  665045 <NA>     <NA>     Middle  
    ##  5  956765 <NA>     High     Middle  
    ##  6  987365 <NA>     Middle   Low     
    ##  7 1114525 <NA>     High     <NA>    
    ##  8 1126765 <NA>     Low      <NA>    
    ##  9 1558565 <NA>     Low      Middle  
    ## 10 1833965 <NA>     Middle   Middle  
    ## # ... with 70,575 more rows
…
Trajectorties.

``` r
Wide <- Wide %>%
        unite("type", a_income, b_income, c_income)
Wide %>% count(type) %>% arrange(-n) %>% print(n = 50)
```

    ## # A tibble: 63 x 2
    ##    type                     n
    ##    <chr>                <int>
    ##  1 Middle_Middle_Middle 13947
    ##  2 NA_Middle_Middle      6629
    ##  3 Middle_NA_NA          6062
    ##  4 High_High_High        3492
    ##  5 Middle_Middle_NA      3452
    ##  6 Low_NA_NA             3058
    ##  7 Low_Low_Low           2932
    ##  8 NA_Low_Low            2118
    ##  9 Low_Middle_Middle     1891
    ## 10 NA_Middle_NA          1798
    ## 11 NA_High_High          1635
    ## 12 NA_NA_Low             1540
    ## 13 NA_NA_Middle          1414
    ## 14 High_NA_NA            1387
    ## 15 Low_Low_Middle        1232
    ## 16 Low_Low_NA            1210
    ## 17 Middle_Middle_High    1166
    ## 18 NA_Low_NA             1012
    ## 19 Middle_NA_Middle       929
    ## 20 NA_Low_Middle          903
    ## 21 Middle_Middle_Low      858
    ## 22 Middle_Low_Middle      844
    ## 23 Middle_High_High       838
    ## 24 High_High_NA           727
    ## 25 Low_Middle_NA          716
    ## 26 High_Middle_Middle     646
    ## 27 NA_Middle_Low          599
    ## 28 Middle_High_Middle     597
    ## 29 Middle_Low_Low         583
    ## 30 NA_Middle_High         572
    ## 31 Low_Middle_Low         545
    ## 32 High_High_Middle       448
    ## 33 NA_NA_High             433
    ## 34 NA_High_Middle         422
    ## 35 Middle_Low_NA          406
    ## 36 NA_High_NA             402
    ## 37 High_Middle_High       395
    ## 38 Middle_High_NA         377
    ## 39 Low_NA_Low             293
    ## 40 High_NA_High           261
    ## 41 Low_NA_Middle          256
    ## 42 High_Middle_NA         204
    ## 43 Middle_NA_High         141
    ## 44 Middle_NA_Low          125
    ## 45 Low_Middle_High        122
    ## 46 Low_High_High          108
    ## 47 High_NA_Middle          84
    ## 48 High_High_Low           83
    ## 49 High_Low_High           70
    ## 50 High_Low_Middle         66
    ## # ... with 13 more rows
…
